^D:\REPOS\SDL-PRUEBAS\TPFINAL\TPFINAL_CHA\TPFINAL_CHA\X64\DEBUG\TPFINAL_CHA.OBJ
/OUT:"D:\REPOS\SDL-PRUEBAS\TPFINAL\TPFINAL_CHA\X64\DEBUG\TPFINAL_CHA.EXE" /INCREMENTAL /ILK:"X64\DEBUG\TPFINAL_CHA.ILK" /NOLOGO KERNEL32.LIB USER32.LIB GDI32.LIB WINSPOOL.LIB COMDLG32.LIB ADVAPI32.LIB SHELL32.LIB OLE32.LIB OLEAUT32.LIB UUID.LIB ODBC32.LIB ODBCCP32.LIB /MANIFEST /MANIFESTUAC:"level='asInvoker' uiAccess='false'" /manifest:embed /DEBUG /PDB:"D:\REPOS\SDL-PRUEBAS\TPFINAL\TPFINAL_CHA\X64\DEBUG\TPFINAL_CHA.PDB" /SUBSYSTEM:CONSOLE /TLBID:1 /DYNAMICBASE /NXCOMPAT /IMPLIB:"D:\REPOS\SDL-PRUEBAS\TPFINAL\TPFINAL_CHA\X64\DEBUG\TPFINAL_CHA.LIB" /MACHINE:X64 X64\DEBUG\TPFINAL_CHA.OBJ
^D:\REPOS\SDL-PRUEBAS\TPFINAL\TPFINAL_CHA\TPFINAL_CHA\X64\DEBUG\TPFINAL_CHA.OBJ|D:\REPOS\SDL-PRUEBAS\TPFINAL\TPFINAL_CHA\TPFINAL_CHA\X64\DEBUG\TPFINAL_CHA.RES
/OUT:"D:\REPOS\SDL-PRUEBAS\TPFINAL\TPFINAL_CHA\X64\DEBUG\TPFINAL_CHA.EXE" /INCREMENTAL /ILK:"X64\DEBUG\TPFINAL_CHA.ILK" /NOLOGO /LIBPATH:"D:\REPOS\SDL-PRUEBAS\SDL2-2.30.0\LIB\X64" /LIBPATH:"D:\REPOS\SDL-PRUEBAS\SDL2_IMAGE-2.8.2\LIB\X64" /LIBPATH:"D:\REPOS\SDL-PRUEBAS\SDL2_TTF-2.22.0\LIB\X64" SDL2.LIB SDL2MAIN.LIB SDL2_IMAGE.LIB SDL2_TTF.LIB KERNEL32.LIB USER32.LIB GDI32.LIB WINSPOOL.LIB COMDLG32.LIB ADVAPI32.LIB SHELL32.LIB OLE32.LIB OLEAUT32.LIB UUID.LIB ODBC32.LIB ODBCCP32.LIB /MANIFEST /MANIFESTUAC:"level='asInvoker' uiAccess='false'" /manifest:embed /DEBUG /PDB:"D:\REPOS\SDL-PRUEBAS\TPFINAL\TPFINAL_CHA\X64\DEBUG\TPFINAL_CHA.PDB" /SUBSYSTEM:CONSOLE /TLBID:1 /DYNAMICBASE /NXCOMPAT /IMPLIB:"D:\REPOS\SDL-PRUEBAS\TPFINAL\TPFINAL_CHA\X64\DEBUG\TPFINAL_CHA.LIB" /MACHINE:X64 X64\DEBUG\TPFINAL_CHA.RES
X64\DEBUG\TPFINAL_CHA.OBJ
